timestamp,Person,Neutrality,Joy,Surprise,Sadness,Anger,Disgust,Fear,Pitch,Roll,Yaw,Nose_landmark_X_coord,Nose_landmark_Y_coord,Chin_landmark_X_coord,Chin_landmark_Y_coord,Center_eyebrows_landmark_X_coord,Center_eyebrows_landmark_Y_coord,Right_cheek_landmark_X_coord,Right_cheek_landmark_Y_coord,Left_cheek_landmark_X_coord,Left_cheek_landmark_Y_coord,Shaking_gesture_bool,Nodding_gesture_bool
0.2248809337615966,0,0.7447066,0.2199137,0.0022984615,0.028130442,0.003520288,0.0013108746,0.00011961066,38.521324,2.365535,0.52132,157.58218,134.77792,166.47159,218.91743,152.60646,75.62432,14.923258,127.2852,329.84314,128.76788,1.0,1.0
0.4527149200439453,0,0.6876497,0.27949023,0.0022835948,0.026679479,0.0027752088,0.0010226958,9.9005105e-05,39.54284,2.3876266,0.7060686,156.29852,134.51111,164.0479,217.22322,152.1706,76.205246,13.857931,126.92365,329.74908,129.09334,0.0,0.0
0.6857469081878662,0,0.7577919,0.20504546,0.002825966,0.028984088,0.0038773802,0.0013470137,0.00012823903,39.588932,2.2554982,0.9572069,153.96992,134.2782,161.00768,217.21286,150.5555,75.27779,13.53312,126.474884,327.78226,129.5222,0.0,0.0
0.9168603420257568,0,0.80219567,0.15342608,0.0025431435,0.03551981,0.0045650466,0.0016319023,0.000118334385,40.03079,2.1755457,0.7996938,153.99344,135.5316,161.4763,217.85956,150.7838,77.025986,13.469141,127.05245,325.76434,129.57896,0.0,0.0
1.138564109802246,0,0.80547833,0.14717114,0.0029107875,0.037039425,0.0053282133,0.001931408,0.00014075817,39.65922,2.2839425,0.9550644,152.39626,135.09065,159.96263,216.18123,149.33855,76.22305,14.81774,126.26339,324.73666,128.80081,0.0,0.0
1.3735246658325195,0,0.822536,0.13898884,0.00403052,0.029834023,0.0031691662,0.0012856701,0.0001558183,37.638924,1.8829253,0.93586063,150.15059,136.2395,157.12486,215.67268,147.8114,78.65661,14.447387,126.28185,318.01358,128.9592,0.0,0.0
1.6016566753387451,0,0.83655035,0.12996754,0.00299602,0.022860438,0.005302116,0.0021883135,0.00013521111,38.508533,1.4743905,1.0898142,146.84811,135.3053,151.54407,217.77235,145.67195,76.146416,8.407286,126.541985,318.76895,129.60004,0.0,0.0
1.8325276374816892,0,0.8389694,0.112727776,0.0035611878,0.03370937,0.0077305497,0.0031354208,0.00016642908,40.32554,1.5332394,0.8935261,147.58144,134.35466,152.24947,216.43903,146.4636,75.57992,7.0575614,126.58036,322.052,129.34845,0.0,0.0
2.051884174346924,0,0.81797135,0.13635862,0.0034409852,0.03309747,0.0061894697,0.0027605384,0.00018167311,41.144733,1.3016943,0.8672973,147.50348,134.30254,151.4023,216.17638,146.74841,75.4433,4.835169,127.02196,322.0493,129.47998,0.0,0.0
2.2841763496398926,0,0.8497173,0.10448617,0.004584676,0.03258405,0.0058218976,0.0025710198,0.00023488978,40.709236,1.4463335,0.6568726,148.40964,134.51593,154.53151,215.83061,146.08965,75.93172,6.239161,126.711525,321.7773,128.29375,0.0,0.0
2.5082106590271,0,0.7985465,0.15562534,0.0041781724,0.03213533,0.0063414434,0.0029656852,0.00020764298,42.24853,1.2610214,0.99518037,149.3152,132.83064,153.93573,214.13005,148.23534,74.25363,4.108673,124.50175,324.7874,128.22162,0.0,0.0
2.7375612258911133,0,0.8150469,0.12808795,0.004533246,0.042611104,0.00697777,0.0024832361,0.0002599399,41.03229,1.1378543,0.5131795,149.11696,134.62596,153.675,217.21994,147.0542,76.23102,4.323374,128.31618,321.00977,130.20102,0.0,0.0
2.9888930320739746,0,0.7377029,0.22414152,0.003464954,0.027011108,0.0051400843,0.0023918045,0.00014758144,41.421276,1.355088,0.6349599,150.40558,132.5665,155.46478,214.93579,148.28595,74.380806,4.3025417,126.45125,325.6848,128.4611,0.0,0.0
3.2184245586395264,0,0.7616033,0.2036029,0.002552555,0.023331739,0.0063218866,0.0024638374,0.0001238413,40.33619,1.3457803,0.70279086,148.43713,133.16907,153.50652,216.62756,147.12936,74.91583,3.8061492,128.39314,324.48483,129.81973,0.0,0.0
3.5376667976379395,0,0.79505086,0.15813625,0.004154253,0.03367885,0.0057984716,0.0029839892,0.00019739664,40.61394,1.3520522,0.4663815,151.27625,134.49197,156.85759,217.17686,148.36446,76.0056,5.8505397,128.90686,322.99805,131.18964,0.0,0.0
3.782940149307251,0,0.7902677,0.16885582,0.0025889594,0.029078966,0.006536954,0.0025362356,0.0001354237,39.87525,1.3005611,0.6828468,149.2328,134.29175,154.37604,218.07042,147.5401,75.63003,5.0752277,129.55014,323.00537,131.45154,0.0,0.0
4.035346508026123,0,0.8562421,0.087224744,0.0049434584,0.04188457,0.0067279707,0.0027036592,0.0002734294,39.94724,1.4846046,0.60409135,150.32007,134.4618,155.3983,217.43892,148.22023,76.23901,6.532776,129.4268,322.73782,130.88602,0.0,0.0
4.271460056304932,0,0.84363574,0.09734203,0.0055610505,0.044779934,0.0058634714,0.0025623136,0.00025546824,40.02864,1.3982356,0.7144272,149.1891,135.00786,154.21579,218.45874,147.21475,76.667946,6.229151,129.57655,321.63745,132.4519,0.0,0.0
4.499149799346924,0,0.83505493,0.11167564,0.0042597177,0.040254336,0.0058318465,0.0026899183,0.00023366725,37.983932,1.193285,0.43649745,148.01172,134.76889,153.35156,219.01472,145.97803,76.42231,6.0674925,129.54897,318.1218,131.59409,0.0,0.0
4.745730638504028,0,0.86588573,0.078886874,0.004621636,0.04384565,0.0046708845,0.0018091504,0.00028014535,39.191696,1.3240683,0.71182454,151.078,135.33675,153.29906,220.17029,150.24634,76.80806,5.283734,130.20248,322.15674,132.02797,0.0,0.0
4.970510005950928,0,0.85919285,0.08476914,0.0052285963,0.04366586,0.004951087,0.0019837506,0.00020879848,39.02468,1.438553,0.733738,151.95761,134.46396,156.69557,217.50099,149.81856,76.90873,7.6337953,128.61548,321.15918,131.2789,0.0,0.0
5.205132722854614,0,0.8461727,0.10955939,0.0040034354,0.034512587,0.003991398,0.0015737285,0.00018672738,39.848316,1.504335,0.5661336,153.40509,134.93831,158.59096,216.8168,150.8028,77.12492,7.172603,128.33856,324.25397,130.04974,0.0,0.0
5.438541412353516,0,0.8574236,0.09216067,0.0040171226,0.037757263,0.0059795445,0.0024749143,0.0001868751,39.007996,1.1863999,0.64448327,150.94562,134.11029,155.62442,217.78488,148.78313,75.52518,6.260373,128.40604,320.74527,130.53207,0.0,0.0
5.677418231964111,0,0.8543919,0.10127597,0.0035300613,0.031216122,0.006831133,0.0025695744,0.00018517216,39.85418,0.9965959,0.8212224,149.71599,134.28854,154.01787,217.3756,148.2423,75.67996,4.786,127.212364,319.9627,130.03098,0.0,0.0
5.90157961845398,0,0.8760226,0.07227191,0.0043845316,0.040302034,0.005010408,0.0018326985,0.00017582756,38.78169,0.97754276,0.5985696,151.25182,135.07666,156.12085,217.68571,148.97472,76.67685,6.2708793,128.03632,317.48425,130.36684,0.0,0.0
6.12510347366333,0,0.84978586,0.09756538,0.0040901722,0.04238468,0.0043255105,0.001693296,0.0001551502,39.166172,1.1410832,0.57471114,151.73228,134.53717,155.852,217.4687,150.03136,77.03992,6.9340525,128.50253,319.64148,130.32059,0.0,0.0
6.361838579177856,0,0.72396827,0.14069657,0.005023258,0.11861322,0.008075255,0.0031412959,0.00048218496,32.892174,2.670856,3.304047,135.52698,131.4617,142.50381,211.9834,136.80911,78.70202,0.21303694,126.43624,324.03452,137.29572,0.0,0.0
6.587372303009033,0,0.49641046,0.09860117,0.008996961,0.34407616,0.03165618,0.01865346,0.0016056163,35.699085,0.9387532,4.5143948,124.83092,121.945244,119.07892,206.9551,134.24028,71.47294,-29.561546,124.10384,331.08206,141.51878,0.0,0.0
6.812465190887451,0,0.6199011,0.12135714,0.0057794023,0.22598474,0.017462257,0.008760045,0.0007553237,29.016409,5.263543,6.1489816,87.72828,124.113594,98.812645,202.11469,101.83222,73.24048,-11.852674,117.94088,328.9866,125.34358,0.0,0.0
7.031160831451416,0,0.4468028,0.08666369,0.015578871,0.39240262,0.04545115,0.011187397,0.0019134464,26.416502,4.108782,3.5784957,110.93394,138.92598,126.15448,215.51416,111.79429,86.69077,-8.854102,130.17606,315.1084,136.68723,1.0,0.0
7.252264022827148,0,0.60448563,0.17623526,0.015469008,0.1792167,0.018781185,0.004758757,0.0010534399,20.408312,-2.4147778,-6.840209,157.01637,144.93445,166.36955,222.29695,146.84721,91.76904,4.905031,147.34164,296.0707,128.48239,1.0,0.0
7.474835872650146,0,0.68863994,0.15222502,0.0069726654,0.13019861,0.013297973,0.0077946847,0.0008710572,-18.925814,-10.111463,-5.49302,204.07889,129.82549,203.67001,211.92091,188.33516,78.143074,-6.1407204,140.51361,328.0815,131.46904,1.0,0.0
7.705948352813721,0,0.5961454,0.09633011,0.0069127637,0.2837315,0.007053634,0.009110769,0.0007157869,-25.073866,-9.847356,-2.1669915,213.40828,125.64535,200.49043,208.85042,200.38684,72.95421,-4.524956,132.5837,315.6437,126.117615,0.0,0.0
7.930910348892212,0,0.46265623,0.3273245,0.008417799,0.18554427,0.011385216,0.0041403547,0.00053158106,-11.09348,-8.555555,-5.9599624,186.24518,134.20953,186.76785,211.28064,175.52669,82.642586,-2.0266018,140.83972,309.40854,127.44969,0.0,0.0
8.15128755569458,0,0.5435091,0.10601843,0.011729567,0.31837046,0.012287647,0.006962265,0.001122421,20.686571,-2.500406,1.2424413,130.82867,135.04076,131.67796,211.5375,131.84676,82.39493,-6.8182583,127.161766,276.6013,129.78944,1.0,0.0
8.379990577697754,0,0.47362542,0.13332908,0.016381871,0.32932463,0.032697514,0.0125989495,0.0020425657,-21.224901,0.7964711,3.843493,110.105156,120.99257,115.97491,200.0309,115.05207,74.74415,-18.828398,120.19395,298.24985,142.69019,1.0,0.0
8.596203804016113,0,0.5806831,0.1822112,0.008476143,0.21151333,0.0086935535,0.0072858077,0.0011368783,-20.790388,10.114956,2.614535,80.166435,127.08678,96.74112,202.43805,93.04065,77.11372,-0.76880085,119.27691,319.54715,123.32214,1.0,0.0
8.81331753730774,0,0.4717372,0.036633212,0.013354392,0.42227852,0.043367922,0.010893715,0.0017350401,27.783298,0.55503494,3.7094681,99.047356,128.65553,107.32959,202.74884,103.46406,80.59938,-25.216629,122.67885,296.45636,135.59897,0.0,0.0
9.03977394104004,0,0.5284236,0.19842122,0.015071273,0.23350796,0.018394347,0.004391364,0.0017902473,31.15155,-0.3734915,-1.7310612,132.98506,136.6869,146.94801,216.18756,125.98735,83.564995,-14.187973,133.55133,301.86847,125.85933,0.0,0.0
9.272849559783936,0,0.6982367,0.055244546,0.007564307,0.22355221,0.01004418,0.0048477603,0.0005101928,-16.324602,-11.879225,-8.7229,195.39574,131.31923,199.7384,205.98012,178.05435,81.68226,-2.9278364,146.67592,311.53912,125.522194,1.0,0.0
9.495672941207886,0,0.67653984,0.12049641,0.008558277,0.17822565,0.006906621,0.008345463,0.0009277358,-26.835642,-13.237345,-3.4333496,224.75093,130.30246,227.07466,214.99895,204.16785,77.03489,17.82071,142.78236,308.47742,126.886955,1.0,0.0
9.733145952224731,0,0.68551207,0.107416935,0.006128333,0.1831189,0.008183156,0.009048732,0.00059198134,-15.079526,-10.848236,-6.210168,207.95236,131.56277,203.41415,213.80069,192.44731,77.0065,-3.3208215,139.2348,313.0412,125.480774,0.0,0.0
9.9505774974823,0,0.4615242,0.3365302,0.0052968636,0.18254086,0.008137657,0.0054244613,0.00054576044,25.580202,-1.5504866,-1.7515606,152.60815,136.71672,154.78104,208.27318,148.68587,86.39503,-1.6686202,127.66668,297.72818,127.27534,1.0,0.0
10.173842191696169,0,0.4756171,0.15325782,0.014252165,0.32930177,0.011947054,0.014159968,0.0014640943,-16.85245,-5.890354,-2.673939,153.67549,121.07366,158.65645,186.69193,147.64503,79.44065,-3.2120683,127.5965,294.82764,123.195076,0.0,1.0
10.403316974639893,0,0.48830476,0.15437722,0.008373446,0.3242571,0.010296393,0.012996136,0.0013949764,23.399435,3.4084134,2.4222174,90.82213,129.02727,102.54612,214.80685,97.924095,75.88971,-18.993464,129.38441,311.50406,128.34448,1.0,0.0
10.629968166351318,0,0.66723025,0.08922045,0.013291552,0.20784064,0.011276677,0.009376292,0.0017640885,-20.932596,6.235358,-0.6234424,83.37689,129.52686,101.505516,211.96825,89.98644,75.1669,-7.4330688,125.95632,306.22458,121.86074,0.0,0.0
10.856244325637816,0,0.47849208,0.11851758,0.012823022,0.35405976,0.016922584,0.01782462,0.0013604314,20.421457,1.6488863,-0.75412923,124.144615,124.92988,148.14572,200.57458,115.2374,76.658745,-4.347091,127.715744,302.37283,125.62204,0.0,0.0
11.084420442581177,0,0.5271109,0.23837985,0.014476863,0.19556174,0.013976516,0.009456914,0.0010372017,18.929577,-2.369007,-4.959327,137.40877,132.98502,151.52739,203.59093,127.83877,82.335335,1.4437351,133.90852,279.55832,121.03662,0.0,0.0
11.313141584396362,0,0.6380725,0.08568031,0.005517724,0.23918432,0.015572758,0.015507372,0.00046496638,-20.070007,-7.6868215,-5.4362683,215.10231,135.01472,213.19508,216.9972,201.03198,82.213394,3.2227807,144.02855,336.31747,131.21225,1.0,0.0
11.539343118667604,0,0.6392147,0.08807731,0.004953715,0.25961056,0.0036052018,0.0039713364,0.00056719297,-26.757652,-10.915246,-3.3929358,225.40724,134.75708,222.60573,214.99376,205.9623,80.55727,4.9161925,141.68073,317.5919,126.83043,0.0,0.0
11.776811599731444,0,0.6108235,0.16194464,0.0055990275,0.20942122,0.006651833,0.0051717004,0.00038805365,-0.7238242,-8.941481,-5.9286914,201.41782,136.93906,188.61005,213.02362,192.96645,84.01505,-4.0712323,140.8077,304.90247,127.8753,0.0,0.0
12.005407094955444,0,0.46560898,0.39663804,0.007840369,0.11579497,0.007893821,0.0055799484,0.00064387196,35.536423,-0.9079511,-2.720175,157.57817,128.58359,161.90594,208.31805,150.93694,75.350975,-8.442685,128.9097,316.36182,123.208176,1.0,0.0
12.22525715827942,0,0.56377554,0.1840612,0.0107718175,0.22340137,0.011026819,0.0059827045,0.0009805248,30.21651,0.73444456,0.13135087,139.22339,130.83102,146.86096,219.31567,136.22533,72.380295,1.0831429,129.80504,305.62808,128.35246,0.0,0.0
12.448583602905272,0,0.6194594,0.2622262,0.004320032,0.10219988,0.00485258,0.006614334,0.00032750808,37.29832,3.0870261,2.9694004,112.70847,126.763794,125.12035,208.07135,117.244354,71.31862,-2.681813,119.33818,325.45346,121.93354,0.0,0.0
12.686947345733644,0,0.71391964,0.16941795,0.0043834946,0.09941444,0.0073606293,0.0051900875,0.00031372524,32.26827,3.6467404,2.821905,112.68703,133.13055,125.78689,215.2488,117.035934,77.214676,1.0053569,125.33721,320.23422,125.14241,0.0,0.0
12.902510643005373,0,0.65552884,0.12648815,0.0050778994,0.19162185,0.013878028,0.0069992887,0.00040584273,40.42649,1.2147751,0.20440057,135.38486,130.75552,144.50276,214.00479,133.38773,74.33347,-0.59945494,130.47119,316.02185,125.59662,0.0,0.0
13.12385320663452,0,0.44796655,0.4470729,0.007167129,0.082980216,0.009974791,0.0044577685,0.00038060572,35.402336,0.002962066,-2.098881,153.6156,139.68507,160.87524,221.2528,147.21803,80.60794,5.687327,136.32422,307.7579,127.81955,0.0,0.0
13.344677925109863,0,0.5392305,0.37435457,0.0037894256,0.07156705,0.0066955723,0.0041950042,0.00016783294,40.121513,-0.7597803,-2.434213,168.71886,133.40025,171.63045,213.5992,160.88614,76.95875,1.3189847,129.82045,314.2008,121.71961,0.0,0.0
13.571088314056396,0,0.6318578,0.2897567,0.0050366344,0.06713659,0.0037709305,0.0021952952,0.00024604495,41.57695,-0.787564,-1.9614952,174.74803,131.68779,172.71376,211.81245,168.65768,75.80983,1.6007395,127.27246,318.67865,122.040565,0.0,0.0
13.799082040786743,0,0.5340121,0.44120786,0.003877828,0.018711997,0.0013661304,0.00072091137,0.00010313268,36.49024,-0.8856629,-1.5663134,166.8172,136.21107,166.53618,220.31538,161.56877,77.62466,5.886384,131.68954,310.39914,128.44528,0.0,0.0
14.02072262763977,0,0.67636955,0.2527105,0.004323914,0.05669549,0.0068115313,0.0028362782,0.00025269898,37.974457,-0.9287699,-1.9349469,160.57756,133.8709,160.1918,217.89915,156.65245,75.661964,2.385318,134.0591,309.07666,125.67856,0.0,0.0
14.238181114196776,0,0.43957338,0.5346032,0.0028588797,0.02068047,0.0013967013,0.000792027,9.542227e-05,37.747307,-0.8500109,-2.5381415,157.39984,130.66138,162.71994,214.11748,150.48308,72.9459,2.6284068,130.08128,306.41376,119.89269,0.0,0.0
14.467538595199583,0,0.4434007,0.5293909,0.0034955272,0.020468662,0.0021317722,0.0010190431,9.345466e-05,36.918694,-0.66329426,-2.0625648,152.90948,130.88084,159.83174,214.35953,146.0516,72.31705,2.930619,127.54642,303.56573,120.52919,0.0,0.0
14.69176721572876,0,0.6437879,0.3066695,0.003907084,0.040793166,0.0030905718,0.001589974,0.00016178096,39.427876,-0.40488026,-2.4873083,154.72046,129.04639,162.19264,210.37108,147.1231,71.92992,2.5385168,127.98506,306.8149,118.24116,0.0,0.0
14.91675353050232,0,0.6418387,0.33066687,0.0051742885,0.019583452,0.0018782748,0.0006856972,0.00017265802,35.17674,-0.8084246,-2.368015,148.98824,132.2481,154.6299,215.37547,143.59514,73.41469,3.984492,130.6078,297.87918,121.76566,0.0,0.0
15.145305633544922,0,0.6849825,0.27600107,0.0035751357,0.031319316,0.0027562797,0.0012135155,0.00015217505,32.673317,-0.24690446,-2.0646336,153.0622,133.94757,156.99673,219.49104,148.50565,74.4471,9.677557,133.45798,302.36856,124.92192,0.0,0.0
